[
    {
        "id": "25b0e140.73f44e",
        "type": "tab",
        "label": "Template",
        "disabled": false,
        "info": ""
    },
    {
        "id": "2efc1b72.89e0e4",
        "type": "comment",
        "z": "25b0e140.73f44e",
        "name": "Template",
        "info": "",
        "x": 130,
        "y": 60,
        "wires": []
    }
]